…
    ## file min/max dates: 1965-01-01 / 2019-09-30

    ## file path:          /Users/hannahbowlin/Library/Caches/rnoaa/ghcnd/USS0023B17S.dly

    ## file last updated:  2019-09-26 10:23:02

    ## file min/max dates: 1999-09-01 / 2019-09-30

``` r
# Grouping by name and month, haven't fundamentally alter the weather_df dataset, just temporarily change how it looks
weather_df %>%
  group_by(name, month)
```

    ## # A tibble: 1,095 x 7
    ## # Groups:   name, month [36]
    ##    name           id          date       month       prcp  tmax  tmin
    ##    <chr>          <chr>       <date>     <date>     <dbl> <dbl> <dbl>
    ##  1 CentralPark_NY USW00094728 2017-01-01 2017-01-01     0   8.9   4.4
    ##  2 CentralPark_NY USW00094728 2017-01-02 2017-01-01    53   5     2.8
    ##  3 CentralPark_NY USW00094728 2017-01-03 2017-01-01   147   6.1   3.9
    ##  4 CentralPark_NY USW00094728 2017-01-04 2017-01-01     0  11.1   1.1
    ##  5 CentralPark_NY USW00094728 2017-01-05 2017-01-01     0   1.1  -2.7
    ##  6 CentralPark_NY USW00094728 2017-01-06 2017-01-01    13   0.6  -3.8
    ##  7 CentralPark_NY USW00094728 2017-01-07 2017-01-01    81  -3.2  -6.6
    ##  8 CentralPark_NY USW00094728 2017-01-08 2017-01-01     0  -3.8  -8.8
    ##  9 CentralPark_NY USW00094728 2017-01-09 2017-01-01     0  -4.9  -9.9
    ## 10 CentralPark_NY USW00094728 2017-01-10 2017-01-01     0   7.8  -6  
    ## # … with 1,085 more rows
…
``` r
#number of unique obs per month
weather_df %>%
  count(name, month)
```

    ## # A tibble: 36 x 3
    ##    name           month          n
    ##    <chr>          <date>     <int>
    ##  1 CentralPark_NY 2017-01-01    31
    ##  2 CentralPark_NY 2017-02-01    28
    ##  3 CentralPark_NY 2017-03-01    31
    ##  4 CentralPark_NY 2017-04-01    30
    ##  5 CentralPark_NY 2017-05-01    31
    ##  6 CentralPark_NY 2017-06-01    30
    ##  7 CentralPark_NY 2017-07-01    31
    ##  8 CentralPark_NY 2017-08-01    31
    ##  9 CentralPark_NY 2017-09-01    30
    ## 10 CentralPark_NY 2017-10-01    31
    ## # … with 26 more rows
…
``` r
weather_df %>%
  group_by(name, month) %>%
  summarize(
    mean_tmax = mean(tmax),
    median_tmax = median(tmax))
```

    ## # A tibble: 36 x 4
    ## # Groups:   name [3]
    ##    name           month      mean_tmax median_tmax
    ##    <chr>          <date>         <dbl>       <dbl>
    ##  1 CentralPark_NY 2017-01-01      5.98         6.1
    ##  2 CentralPark_NY 2017-02-01      9.28         8.3
    ##  3 CentralPark_NY 2017-03-01      8.22         8.3
    ##  4 CentralPark_NY 2017-04-01     18.3         18.3
    ##  5 CentralPark_NY 2017-05-01     20.1         19.4
    ##  6 CentralPark_NY 2017-06-01     26.3         27.2
    ##  7 CentralPark_NY 2017-07-01     28.7         29.4
    ##  8 CentralPark_NY 2017-08-01     27.2         27.2
    ##  9 CentralPark_NY 2017-09-01     25.4         26.1
    ## 10 CentralPark_NY 2017-10-01     21.8         22.2
    ## # … with 26 more rows
…
